{
	"info": {
		"name": "Azure TonyAppService",
		"_postman_id": "4c70b378-eb64-ebbe-19fc-b5795bd283dd",
		"description": "",
		"schema": "https://schema.getpostman.com/json/collection/v2.1.0/collection.json"
	},
	"item": [
		{
			"name": "Integrate with function TonyAppService",
			"event": [
				{
					"listen": "test",
					"script": {
						"id": "8828655c-2fd7-4ff6-ac9c-d9320d642514",
						"type": "text/javascript",
						"exec": [
							"tests[\"Status code is 201\"] = responseCode.code === 201;",
							""
						]
					}
				}
			],
			"request": {
				"auth": {
					"type": "noauth"
				},
				"method": "POST",
				"header": [
					{
						"key": "Content-Type",
						"value": "application/json"
					},
					{
						"key": "X-Amz-Date",
						"value": "20170325T142337Z"
					}
				],
				"body": {
					"mode": "raw",
					"raw": "{\r\n    \"name\": \"Azure\"\r\n}"
				},
				"url": {
					"raw": "https://tonyappservice.azurewebsites.net/api/HttpPOST-CRUD-CSharp1?code=nZEaWXlvyrySBwWejqcN6FUaxLQxFl20D4aMqz6wXOyh0hSgrJp8iw==",
					"protocol": "https",
					"host": [
						"tonyappservice",
						"azurewebsites",
						"net"
					],
					"path": [
						"api",
						"HttpPOST-CRUD-CSharp1"
					],
					"query": [
						{
							"key": "code",
							"value": "nZEaWXlvyrySBwWejqcN6FUaxLQxFl20D4aMqz6wXOyh0hSgrJp8iw==",
							"equals": true
						}
					]
				},
				"description": "Integrate with lambda proxy"
			},
			"response": []
		}
	]
}